NCBI taxonomy and completeness • taxPPro
…
#> Importing ranked lineage...
#> Importing nodes...
#> Registered S3 methods overwritten by 'readr':
#>   method                    from 
#>   as.data.frame.spec_tbl_df vroom
#>   as_tibble.spec_tbl_df     vroom
#>   format.col_spec           vroom
#>   print.col_spec            vroom
#>   print.collector           vroom
#>   print.date_names          vroom
#>   print.locale              vroom
#>   str.col_spec              vroom
#> Combining ranked lineages and nodes...
ncbi_taxonomy
#> # A tibble: 548,240 × 11
#>    kingdom phylum class order family genus species NCBI_ID Taxon…¹ Paren…² Rank 
#>    <chr>   <chr>  <chr> <chr> <chr>  <chr> <chr>   <chr>   <chr>   <chr>   <chr>
#>  1 ""      NA     NA    NA    NA     NA    NA      2157    Archaea 131567  supe…
#>  2 "Archa… NA     NA    NA    NA     NA    NA      1935183 Asgard… 2157    clade
#>  3 "Archa… NA     NA    NA    NA     NA    NA      2798909 Candid… 1935183 phyl…
#>  4 "Archa… Candi… NA    NA    NA     NA    NA      2798916 Candid… 2798909 class
#>  5 "Archa… Candi… Cand… NA    NA     NA    NA      2798922 Candid… 2798916 order
#>  6 "Archa… Candi… Cand… Cand… NA     NA    NA      2798928 Candid… 2798922 fami…
#>  7 "Archa… Candi… Cand… Cand… Candi… NA    NA      2798934 Candid… 2798928 genus
#>  8 "Archa… Candi… Cand… Cand… Candi… Cand… NA      2798940 Candid… 2798934 spec…
#>  9 "Archa… Candi… NA    NA    NA     NA    NA      2799004 unclas… 2798909 no r…
#> 10 "Archa… Candi… NA    NA    NA     NA    NA      2799005 Candid… 2799004 spec…
#> # … with 548,230 more rows, and abbreviated variable names ¹​Taxon_name,
#> #   ²​Parent_NCBI_ID
…
